Data Visualization
…
---

# Example: Creating a Line Graph

- Let's look at crime trends for four crimes (battery, burglary, vehicle theft, and identity theft) in 2017 in Los Angeles

- This data is in the `crime` dataset we imported earlier

```r
print(crime)
```

```
## # A tibble: 48 x 3
##    month `Crime Name`   ncrimes
##    <dbl> <chr>            <dbl>
##  1     1 Burglary          1301
##  2     1 Identity Theft    1131
##  3     1 Vehicle Theft     1755
##  4     1 Battery           1369
##  5     2 Burglary          1173
##  6     2 Identity Theft     912
##  7     2 Vehicle Theft     1462
##  8     2 Battery           1315
##  9     3 Burglary          1266
## 10     3 Identity Theft    1141
## # ... with 38 more rows
```
…
